module gitlab.com/gitlab-org/opstrace/opstrace/clickhouse-backup

go 1.21

replace gitlab.com/gitlab-org/opstrace/opstrace/go => ../go

require (
	cloud.google.com/go/storage v1.32.0
	github.com/ClickHouse/clickhouse-go/v2 v2.15.0
	gitlab.com/gitlab-org/opstrace/opstrace/go v0.0.0-00010101000000-000000000000
	go.uber.org/zap v1.26.0
	google.golang.org/api v0.132.0
)

require (
	cloud.google.com/go v0.110.9 // indirect
	cloud.google.com/go/compute v1.23.2 // indirect
	cloud.google.com/go/compute/metadata v0.2.3 // indirect
	cloud.google.com/go/iam v1.1.4 // indirect
	github.com/Azure/go-ansiterm v0.0.0-20230124172434-306776ec8161 // indirect
	github.com/ClickHouse/ch-go v0.58.2 // indirect
	github.com/MakeNowJust/heredoc v1.0.0 // indirect
	github.com/andybalholm/brotli v1.0.6 // indirect
	github.com/beorn7/perks v1.0.1 // indirect
	github.com/bytedance/sonic v1.10.2 // indirect
	github.com/cespare/xxhash/v2 v2.2.0 // indirect
	github.com/chai2010/gettext-go v1.0.2 // indirect
	github.com/chenzhuoyu/base64x v0.0.0-20230717121745-296ad89f973d // indirect
	github.com/chenzhuoyu/iasm v0.9.1 // indirect
	github.com/davecgh/go-spew v1.1.2-0.20180830191138-d8f796af33cc // indirect
	github.com/emicklei/go-restful/v3 v3.11.0 // indirect
	github.com/evanphx/json-patch v5.6.0+incompatible // indirect
	github.com/evanphx/json-patch/v5 v5.7.0 // indirect
	github.com/exponent-io/jsonpath v0.0.0-20210407135951-1de76d718b3f // indirect
	github.com/fatih/camelcase v1.0.0 // indirect
	github.com/fluxcd/kustomize-controller/api v0.32.0 // indirect
	github.com/fluxcd/pkg/apis/kustomize v0.7.0 // indirect
	github.com/fluxcd/pkg/apis/meta v0.18.0 // indirect
	github.com/fluxcd/pkg/ssa v0.22.0 // indirect
	github.com/gabriel-vasile/mimetype v1.4.3 // indirect
	github.com/gin-contrib/sse v0.1.0 // indirect
	github.com/gin-gonic/gin v1.9.1 // indirect
	github.com/go-errors/errors v1.4.2 // indirect
	github.com/go-faster/city v1.0.1 // indirect
	github.com/go-faster/errors v0.6.1 // indirect
	github.com/go-logr/logr v1.3.0 // indirect
	github.com/go-openapi/jsonpointer v0.20.0 // indirect
	github.com/go-openapi/jsonreference v0.20.2 // indirect
	github.com/go-openapi/swag v0.22.4 // indirect
	github.com/go-playground/locales v0.14.1 // indirect
	github.com/go-playground/universal-translator v0.18.1 // indirect
	github.com/go-playground/validator/v10 v10.15.5 // indirect
	github.com/goccy/go-json v0.10.2 // indirect
	github.com/gogo/protobuf v1.3.2 // indirect
	github.com/golang/groupcache v0.0.0-20210331224755-41bb18bfe9da // indirect
	github.com/golang/protobuf v1.5.3 // indirect
	github.com/google/btree v1.1.2 // indirect
	github.com/google/gnostic-models v0.6.8 // indirect
	github.com/google/go-cmp v0.6.0 // indirect
	github.com/google/gofuzz v1.2.0 // indirect
	github.com/google/s2a-go v0.1.4 // indirect
	github.com/google/shlex v0.0.0-20191202100458-e7afc7fbc510 // indirect
	github.com/google/uuid v1.4.0 // indirect
	github.com/googleapis/enterprise-certificate-proxy v0.2.5 // indirect
	github.com/googleapis/gax-go/v2 v2.12.0 // indirect
	github.com/gregjones/httpcache v0.0.0-20190611155906-901d90724c79 // indirect
	github.com/imdario/mergo v0.3.16 // indirect
	github.com/inconshreveable/mousetrap v1.1.0 // indirect
	github.com/josharian/intern v1.0.0 // indirect
	github.com/json-iterator/go v1.1.12 // indirect
	github.com/klauspost/compress v1.17.2 // indirect
	github.com/klauspost/cpuid/v2 v2.2.5 // indirect
	github.com/leodido/go-urn v1.2.4 // indirect
	github.com/liggitt/tabwriter v0.0.0-20181228230101-89fcab3d43de // indirect
	github.com/mailru/easyjson v0.7.7 // indirect
	github.com/mattn/go-isatty v0.0.20 // indirect
	github.com/matttproud/golang_protobuf_extensions/v2 v2.0.0 // indirect
	github.com/mitchellh/go-wordwrap v1.0.1 // indirect
	github.com/moby/spdystream v0.2.0 // indirect
	github.com/moby/term v0.5.0 // indirect
	github.com/modern-go/concurrent v0.0.0-20180306012644-bacd9c7ef1dd // indirect
	github.com/modern-go/reflect2 v1.0.2 // indirect
	github.com/monochromegane/go-gitignore v0.0.0-20200626010858-205db1a8cc00 // indirect
	github.com/munnerz/goautoneg v0.0.0-20191010083416-a7dc8b61c822 // indirect
	github.com/paulmach/orb v0.10.0 // indirect
	github.com/pelletier/go-toml/v2 v2.1.0 // indirect
	github.com/peterbourgon/diskv v2.0.1+incompatible // indirect
	github.com/pierrec/lz4/v4 v4.1.18 // indirect
	github.com/pkg/errors v0.9.1 // indirect
	github.com/prometheus/client_golang v1.17.0 // indirect
	github.com/prometheus/client_model v0.5.0 // indirect
	github.com/prometheus/common v0.45.0 // indirect
	github.com/prometheus/procfs v0.12.0 // indirect
	github.com/russross/blackfriday/v2 v2.1.0 // indirect
	github.com/segmentio/asm v1.2.0 // indirect
	github.com/sethvargo/go-retry v0.2.4 // indirect
	github.com/shopspring/decimal v1.3.1 // indirect
	github.com/spf13/cobra v1.8.0 // indirect
	github.com/spf13/pflag v1.0.5 // indirect
	github.com/twitchyliquid64/golang-asm v0.15.1 // indirect
	github.com/ugorji/go/codec v1.2.11 // indirect
	github.com/xlab/treeprint v1.2.0 // indirect
	gitlab.com/gitlab-org/opstrace/goose/v3 v3.11.5 // indirect
	go.opencensus.io v0.24.0 // indirect
	go.opentelemetry.io/otel v1.20.0 // indirect
	go.opentelemetry.io/otel/trace v1.20.0 // indirect
	go.starlark.net v0.0.0-20230525235612-a134d8f9ddca // indirect
	go.uber.org/multierr v1.11.0 // indirect
	golang.org/x/arch v0.5.0 // indirect
	golang.org/x/crypto v0.15.0 // indirect
	golang.org/x/net v0.18.0 // indirect
	golang.org/x/oauth2 v0.13.0 // indirect
	golang.org/x/sync v0.5.0 // indirect
	golang.org/x/sys v0.14.0 // indirect
	golang.org/x/term v0.14.0 // indirect
	golang.org/x/text v0.14.0 // indirect
	golang.org/x/time v0.3.0 // indirect
	golang.org/x/xerrors v0.0.0-20220907171357-04be3eba64a2 // indirect
	google.golang.org/appengine v1.6.8 // indirect
	google.golang.org/genproto v0.0.0-20231030173426-d783a09b4405 // indirect
	google.golang.org/genproto/googleapis/api v0.0.0-20231016165738-49dd2c1f3d0b // indirect
	google.golang.org/genproto/googleapis/rpc v0.0.0-20231106174013-bbf56f31fb17 // indirect
	google.golang.org/grpc v1.59.0 // indirect
	google.golang.org/protobuf v1.31.0 // indirect
	gopkg.in/inf.v0 v0.9.1 // indirect
	gopkg.in/yaml.v2 v2.4.0 // indirect
	gopkg.in/yaml.v3 v3.0.1 // indirect
	k8s.io/api v0.28.2 // indirect
	k8s.io/apiextensions-apiserver v0.28.2 // indirect
	k8s.io/apimachinery v0.28.2 // indirect
	k8s.io/cli-runtime v0.28.2 // indirect
	k8s.io/client-go v0.28.2 // indirect
	k8s.io/component-base v0.28.2 // indirect
	k8s.io/klog/v2 v2.100.1 // indirect
	k8s.io/kube-openapi v0.0.0-20231010175941-2dd684a91f00 // indirect
	k8s.io/kubectl v0.28.2 // indirect
	k8s.io/utils v0.0.0-20230726121419-3b25d923346b // indirect
	sigs.k8s.io/cli-utils v0.34.0 // indirect
	sigs.k8s.io/controller-runtime v0.16.2 // indirect
	sigs.k8s.io/json v0.0.0-20221116044647-bc3834ca7abd // indirect
	sigs.k8s.io/kustomize/api v0.13.5-0.20230601165947-6ce0bf390ce3 // indirect
	sigs.k8s.io/kustomize/kyaml v0.14.3 // indirect
	sigs.k8s.io/structured-merge-diff/v4 v4.3.0 // indirect
	sigs.k8s.io/yaml v1.4.0 // indirect
)
